mc20_13TeV.603193.PhPy8_A14_NNPDF31_ttbb_4FS_pTdef1_pThard1_ljets.deriv.DAOD_PHYSLITE.e8555_s3797_r13144_p6623
mc20_13TeV.603193.PhPy8_A14_NNPDF31_ttbb_4FS_pTdef1_pThard1_ljets.deriv.DAOD_PHYSLITE.e8555_s3797_r13145_p6623
mc20_13TeV.603193.PhPy8_A14_NNPDF31_ttbb_4FS_pTdef1_pThard1_ljets.deriv.DAOD_PHYSLITE.e8555_s3797_r13167_p6623


mc20_13TeV.603191.PhPy8_A14_NNPDF31_ttbb_4FS_pTdef1_pThard1_dilep.deriv.DAOD_PHYSLITE.e8555_s3797_r13144_p6623
mc20_13TeV.603191.PhPy8_A14_NNPDF31_ttbb_4FS_pTdef1_pThard1_dilep.deriv.DAOD_PHYSLITE.e8555_s3797_r13145_p6623
mc20_13TeV.603191.PhPy8_A14_NNPDF31_ttbb_4FS_pTdef1_pThard1_dilep.deriv.DAOD_PHYSLITE.e8555_s3797_r13167_p6623


mc20_13TeV.411233.PowhegHerwig7EvtGen_tt_hdamp258p75_713_SingleLep.deriv.DAOD_PHYSLITE.e7580_a907_r14859_p6490
mc20_13TeV.411233.PowhegHerwig7EvtGen_tt_hdamp258p75_713_SingleLep.deriv.DAOD_PHYSLITE.e7580_a907_r14860_p6490
mc20_13TeV.411233.PowhegHerwig7EvtGen_tt_hdamp258p75_713_SingleLep.deriv.DAOD_PHYSLITE.e7580_a907_r14861_p6490


mc20_13TeV.601491.PhPy8EG_A14_ttbar_pThard1_dil.deriv.DAOD_PHYSLITE.e8441_a907_r14859_p6490
mc20_13TeV.601491.PhPy8EG_A14_ttbar_pThard1_dil.deriv.DAOD_PHYSLITE.e8441_a907_r14860_p6490
mc20_13TeV.601491.PhPy8EG_A14_ttbar_pThard1_dil.deriv.DAOD_PHYSLITE.e8441_a907_r14861_p6490


mc20_13TeV.601497.PhPy8EG_A14_ttbar_pThard1_singlelep.deriv.DAOD_PHYSLITE.e8435_a907_r14859_p6490
mc20_13TeV.601497.PhPy8EG_A14_ttbar_pThard1_singlelep.deriv.DAOD_PHYSLITE.e8435_a907_r14860_p6490
mc20_13TeV.601497.PhPy8EG_A14_ttbar_pThard1_singlelep.deriv.DAOD_PHYSLITE.e8435_a907_r14861_p6490
