mc20_13TeV.604420.PhPy8EG_PDF4LHC21_HH_2L0tau_chhh1p0.deriv.DAOD_PHYS.e8564_s3797_r13144_p6490
mc20_13TeV.604420.PhPy8EG_PDF4LHC21_HH_2L0tau_chhh1p0.deriv.DAOD_PHYS.e8564_s3797_r13145_p6490
mc20_13TeV.604420.PhPy8EG_PDF4LHC21_HH_2L0tau_chhh1p0.deriv.DAOD_PHYS.e8564_s3797_r13167_p6490

mc20_13TeV.604421.PhPy8EG_PDF4LHC21_HH_2L1tau_chhh1p0.deriv.DAOD_PHYS.e8564_s3797_r13144_p6490
mc20_13TeV.604421.PhPy8EG_PDF4LHC21_HH_2L1tau_chhh1p0.deriv.DAOD_PHYS.e8564_s3797_r13145_p6490
mc20_13TeV.604421.PhPy8EG_PDF4LHC21_HH_2L1tau_chhh1p0.deriv.DAOD_PHYS.e8564_s3797_r13167_p6490

mc20_13TeV.604422.PhPy8EG_PDF4LHC21_HH_3L0tau_chhh1p0.deriv.DAOD_PHYS.e8564_s3797_r13144_p6490
mc20_13TeV.604422.PhPy8EG_PDF4LHC21_HH_3L0tau_chhh1p0.deriv.DAOD_PHYS.e8564_s3797_r13145_p6490
mc20_13TeV.604422.PhPy8EG_PDF4LHC21_HH_3L0tau_chhh1p0.deriv.DAOD_PHYS.e8564_s3797_r13167_p6490

mc20_13TeV.604423.PhPy8EG_PDF4LHC21_HH_3L1tau_chhh1p0.deriv.DAOD_PHYS.e8564_s3797_r13144_p6490
mc20_13TeV.604423.PhPy8EG_PDF4LHC21_HH_3L1tau_chhh1p0.deriv.DAOD_PHYS.e8564_s3797_r13145_p6490
mc20_13TeV.604423.PhPy8EG_PDF4LHC21_HH_3L1tau_chhh1p0.deriv.DAOD_PHYS.e8564_s3797_r13167_p6490

mc20_13TeV.604424.PhPy8EG_PDF4LHC21_HH_4L0tau_chhh1p0.deriv.DAOD_PHYS.e8564_s3797_r13144_p6490
mc20_13TeV.604424.PhPy8EG_PDF4LHC21_HH_4L0tau_chhh1p0.deriv.DAOD_PHYS.e8564_s3797_r13145_p6490
mc20_13TeV.604424.PhPy8EG_PDF4LHC21_HH_4L0tau_chhh1p0.deriv.DAOD_PHYS.e8564_s3797_r13167_p6490

mc20_13TeV.604425.PhPy8EG_PDF4LHC21_HH_4L1tau_chhh1p0.deriv.DAOD_PHYS.e8564_s3797_r13144_p6490
mc20_13TeV.604425.PhPy8EG_PDF4LHC21_HH_4L1tau_chhh1p0.deriv.DAOD_PHYS.e8564_s3797_r13145_p6490
mc20_13TeV.604425.PhPy8EG_PDF4LHC21_HH_4L1tau_chhh1p0.deriv.DAOD_PHYS.e8564_s3797_r13167_p6490

mc20_13TeV.604426.PhPy8EG_PDF4LHC21_HH_bb4l_chhh1p0.deriv.DAOD_PHYS.e8564_s3797_r13144_p6490
mc20_13TeV.604426.PhPy8EG_PDF4LHC21_HH_bb4l_chhh1p0.deriv.DAOD_PHYS.e8564_s3797_r13145_p6490
mc20_13TeV.604426.PhPy8EG_PDF4LHC21_HH_bb4l_chhh1p0.deriv.DAOD_PHYS.e8564_s3797_r13167_p6490

mc20_13TeV.604427.PhPy8EG_PDF4LHC21_HH_1l3tau_chhh1p0.deriv.DAOD_PHYS.e8564_s3797_r13144_p6490
mc20_13TeV.604427.PhPy8EG_PDF4LHC21_HH_1l3tau_chhh1p0.deriv.DAOD_PHYS.e8564_s3797_r13145_p6490
mc20_13TeV.604427.PhPy8EG_PDF4LHC21_HH_1l3tau_chhh1p0.deriv.DAOD_PHYS.e8564_s3797_r13167_p6490

