mc20_13TeV.411233.PowhegHerwig7EvtGen_tt_hdamp258p75_713_SingleLep.deriv.DAOD_PHYS.e7580_a907_r14859_p6266
mc20_13TeV.411233.PowhegHerwig7EvtGen_tt_hdamp258p75_713_SingleLep.deriv.DAOD_PHYS.e7580_a907_r14861_p6266
mc20_13TeV.411233.PowhegHerwig7EvtGen_tt_hdamp258p75_713_SingleLep.deriv.DAOD_PHYS.e7580_a907_r14860_p6266

mc20_13TeV.411234.PowhegHerwig7EvtGen_tt_hdamp258p75_713_dil.deriv.DAOD_PHYS.e7580_a907_r14861_p6266
mc20_13TeV.411234.PowhegHerwig7EvtGen_tt_hdamp258p75_713_dil.deriv.DAOD_PHYS.e7580_a907_r14860_p6266
mc20_13TeV.411234.PowhegHerwig7EvtGen_tt_hdamp258p75_713_dil.deriv.DAOD_PHYS.e7580_a907_r14859_p6266

mc20_13TeV.411316.PowhegHerwig7EvtGen_tt_hdamp258p75_713_allhad.deriv.DAOD_PHYS.e7765_s3681_r13167_p6266
mc20_13TeV.411316.PowhegHerwig7EvtGen_tt_hdamp258p75_713_allhad.deriv.DAOD_PHYS.e7765_s3681_r13144_p6266
mc20_13TeV.411316.PowhegHerwig7EvtGen_tt_hdamp258p75_713_allhad.deriv.DAOD_PHYS.e7765_s3681_r13145_p6266

mc20_13TeV.411316.PowhegHerwig7EvtGen_tt_hdamp258p75_713_allhad.deriv.DAOD_PHYS.e7765_a907_r14859_p6266
mc20_13TeV.411316.PowhegHerwig7EvtGen_tt_hdamp258p75_713_allhad.deriv.DAOD_PHYS.e7765_a907_r14860_p6266
mc20_13TeV.411316.PowhegHerwig7EvtGen_tt_hdamp258p75_713_allhad.deriv.DAOD_PHYS.e7765_a907_r14861_p6266

mc20_13TeV.601497.PhPy8EG_A14_ttbar_pThard1_singlelep.deriv.DAOD_PHYS.e8435_a907_r14859_p6266
mc20_13TeV.601497.PhPy8EG_A14_ttbar_pThard1_singlelep.deriv.DAOD_PHYS.e8435_a907_r14861_p6266
mc20_13TeV.601497.PhPy8EG_A14_ttbar_pThard1_singlelep.deriv.DAOD_PHYS.e8435_a907_r14860_p6266

mc20_13TeV.601491.PhPy8EG_A14_ttbar_pThard1_dil.deriv.DAOD_PHYS.e8441_a907_r14859_p6266
mc20_13TeV.601491.PhPy8EG_A14_ttbar_pThard1_dil.deriv.DAOD_PHYS.e8441_a907_r14861_p6266
mc20_13TeV.601491.PhPy8EG_A14_ttbar_pThard1_dil.deriv.DAOD_PHYS.e8441_a907_r14860_p6266

mc20_13TeV.601356.PhPy8EG_A14_ttbar_hdamp258p75_Trec_ljets.deriv.DAOD_PHYS.e8433_a907_r14859_p6266
mc20_13TeV.601356.PhPy8EG_A14_ttbar_hdamp258p75_Trec_ljets.deriv.DAOD_PHYS.e8433_a907_r14860_p6266
mc20_13TeV.601356.PhPy8EG_A14_ttbar_hdamp258p75_Trec_ljets.deriv.DAOD_PHYS.e8433_a907_r14861_p6266

mc20_13TeV.601357.PhPy8EG_A14_ttbar_hdamp258p75_Trec_dil.deriv.DAOD_PHYS.e8427_a907_r14859_p6266
mc20_13TeV.601357.PhPy8EG_A14_ttbar_hdamp258p75_Trec_dil.deriv.DAOD_PHYS.e8427_a907_r14860_p6266
mc20_13TeV.601357.PhPy8EG_A14_ttbar_hdamp258p75_Trec_dil.deriv.DAOD_PHYS.e8427_a907_r14861_p6266

mc20_13TeV.410480.PhPy8EG_A14_ttbar_hdamp517p5_SingleLep.deriv.DAOD_PHYS.e6454_a907_r14859_p6266
mc20_13TeV.410480.PhPy8EG_A14_ttbar_hdamp517p5_SingleLep.deriv.DAOD_PHYS.e6454_a907_r14860_p6266
mc20_13TeV.410480.PhPy8EG_A14_ttbar_hdamp517p5_SingleLep.deriv.DAOD_PHYS.e6454_a907_r14861_p6266

mc20_13TeV.410482.PhPy8EG_A14_ttbar_hdamp517p5_dil.deriv.DAOD_PHYS.e6454_a907_r14859_p6266
mc20_13TeV.410482.PhPy8EG_A14_ttbar_hdamp517p5_dil.deriv.DAOD_PHYS.e6454_a907_r14860_p6266
mc20_13TeV.410482.PhPy8EG_A14_ttbar_hdamp517p5_dil.deriv.DAOD_PHYS.e6454_a907_r14861_p6266

mc20_13TeV.410481.PhPy8EG_A14_ttbar_hdamp517p5_allhad.deriv.DAOD_PHYS.e6520_s3681_r13167_p6266
mc20_13TeV.410481.PhPy8EG_A14_ttbar_hdamp517p5_allhad.deriv.DAOD_PHYS.e6520_s3681_r13144_p6266
mc20_13TeV.410481.PhPy8EG_A14_ttbar_hdamp517p5_allhad.deriv.DAOD_PHYS.e6520_s3681_r13145_p6266

mc20_13TeV.410481.PhPy8EG_A14_ttbar_hdamp517p5_allhad.deriv.DAOD_PHYS.e6520_a907_r14859_p6266
mc20_13TeV.410481.PhPy8EG_A14_ttbar_hdamp517p5_allhad.deriv.DAOD_PHYS.e6520_a907_r14860_p6266
mc20_13TeV.410481.PhPy8EG_A14_ttbar_hdamp517p5_allhad.deriv.DAOD_PHYS.e6520_a907_r14861_p6266

mc20_13TeV.410470.PhPy8EG_A14_ttbar_hdamp258p75_nonallhad.deriv.DAOD_PHYS.e6337_a907_r14859_p6266
mc20_13TeV.410470.PhPy8EG_A14_ttbar_hdamp258p75_nonallhad.deriv.DAOD_PHYS.e6337_a907_r14860_p6266
mc20_13TeV.410470.PhPy8EG_A14_ttbar_hdamp258p75_nonallhad.deriv.DAOD_PHYS.e6337_a907_r14861_p6266
