mc20_13TeV.700507.Sh_2211_pTW140_Wqqgamma.deriv.DAOD_PHYS.e8338_s3681_r13167_p6490
mc20_13TeV.700507.Sh_2211_pTW140_Wqqgamma.deriv.DAOD_PHYS.e8338_s3681_r13145_p6490
mc20_13TeV.700507.Sh_2211_pTW140_Wqqgamma.deriv.DAOD_PHYS.e8338_s3681_r13144_p6490
