mc20_13TeV.364542.Sherpa_222_NNPDF30NNLO_SinglePhoton_pty_35_70.deriv.DAOD_PHYS.e6788_s3681_r13145_p6490 
mc20_13TeV.364542.Sherpa_222_NNPDF30NNLO_SinglePhoton_pty_35_70.deriv.DAOD_PHYS.e6788_s3681_r13167_p6490     
mc20_13TeV.364542.Sherpa_222_NNPDF30NNLO_SinglePhoton_pty_35_70.deriv.DAOD_PHYS.e6788_s3681_r13144_p6490   
mc20_13TeV.364543.Sherpa_222_NNPDF30NNLO_SinglePhoton_pty_70_140.deriv.DAOD_PHYS.e5938_s3681_r13145_p6490   
mc20_13TeV.364543.Sherpa_222_NNPDF30NNLO_SinglePhoton_pty_70_140.deriv.DAOD_PHYS.e5938_s3681_r13167_p6490  
mc20_13TeV.364543.Sherpa_222_NNPDF30NNLO_SinglePhoton_pty_70_140.deriv.DAOD_PHYS.e5938_s3681_r13144_p6490
mc20_13TeV.364544.Sherpa_222_NNPDF30NNLO_SinglePhoton_pty_140_280.deriv.DAOD_PHYS.e5938_s3681_r13144_p6490 
mc20_13TeV.364544.Sherpa_222_NNPDF30NNLO_SinglePhoton_pty_140_280.deriv.DAOD_PHYS.e5938_s3681_r13145_p6490  
mc20_13TeV.364544.Sherpa_222_NNPDF30NNLO_SinglePhoton_pty_140_280.deriv.DAOD_PHYS.e5938_s3681_r13167_p6490  
mc20_13TeV.364545.Sherpa_222_NNPDF30NNLO_SinglePhoton_pty_280_500.deriv.DAOD_PHYS.e5938_s3681_r13144_p6490     
mc20_13TeV.364545.Sherpa_222_NNPDF30NNLO_SinglePhoton_pty_280_500.deriv.DAOD_PHYS.e5938_s3681_r13167_p6490      
mc20_13TeV.364545.Sherpa_222_NNPDF30NNLO_SinglePhoton_pty_280_500.deriv.DAOD_PHYS.e5938_s3681_r13145_p6490 
mc20_13TeV.364546.Sherpa_222_NNPDF30NNLO_SinglePhoton_pty_500_1000.deriv.DAOD_PHYS.e5938_s3681_r13145_p6490       
mc20_13TeV.364546.Sherpa_222_NNPDF30NNLO_SinglePhoton_pty_500_1000.deriv.DAOD_PHYS.e5938_s3681_r13167_p6490       
mc20_13TeV.364546.Sherpa_222_NNPDF30NNLO_SinglePhoton_pty_500_1000.deriv.DAOD_PHYS.e5938_s3681_r13144_p6490    
mc20_13TeV.364547.Sherpa_222_NNPDF30NNLO_SinglePhoton_pty_1000_E_CMS.deriv.DAOD_PHYS.e6068_s3681_r13167_p6490
mc20_13TeV.364547.Sherpa_222_NNPDF30NNLO_SinglePhoton_pty_1000_E_CMS.deriv.DAOD_PHYS.e6068_s3681_r13145_p6490  
mc20_13TeV.364547.Sherpa_222_NNPDF30NNLO_SinglePhoton_pty_1000_E_CMS.deriv.DAOD_PHYS.e6068_s3681_r13144_p6490